…
-   

    c)  *Convert the* `tibble` *to a* `long` *format, with separate rows for* `Temp_gaps` *and* `Temp`

To see the difference between the columns `Temp_gaps` and `Temp`, rows 279 to 302 (Julian Day 15) are used below:


``` r
WHG <- as_tibble(Winters_hours_gaps[279:302, ])
WHGlong <- WHG %>% pivot_longer(cols = Temp_gaps:Temp)
WHGlong
```

```
## # A tibble: 48 x 6
##     Year Month   Day  Hour name      value
##    <int> <int> <int> <int> <chr>     <dbl>
##  1  2008     3    15     0 Temp_gaps  6.76
##  2  2008     3    15     0 Temp       6.76
##  3  2008     3    15     1 Temp_gaps  6.48
##  4  2008     3    15     1 Temp       6.48
##  5  2008     3    15     2 Temp_gaps  5.51
##  6  2008     3    15     2 Temp       5.51
##  7  2008     3    15     3 Temp_gaps  6.89
##  8  2008     3    15     3 Temp       6.89
##  9  2008     3    15     4 Temp_gaps  6.10
## 10  2008     3    15     4 Temp       6.10
## # i 38 more rows
```
…
-   

    e)  *Convert the dataset back to the* `wide` *format*


``` r
WHGwide <- WHGlong %>% pivot_wider(names_from = name)
WHGwide
```

```
## # A tibble: 24 x 6
##     Year Month   Day  Hour Temp_gaps  Temp
##    <int> <int> <int> <int>     <dbl> <dbl>
##  1  2008     3    15     0      6.76  6.76
##  2  2008     3    15     1      6.48  6.48
##  3  2008     3    15     2      5.51  5.51
##  4  2008     3    15     3      6.89  6.89
##  5  2008     3    15     4      6.10  6.10
##  6  2008     3    15     5     NA     6.91
##  7  2008     3    15     6     NA     6.10
##  8  2008     3    15     7     NA     5.98
##  9  2008     3    15     8     NA     8.99
## 10  2008     3    15     9     10.8  10.8 
## # i 14 more rows
```

-   

    f)  *Select only the following columns:* `Year`, `Month`, `Day` *and* `Temp`


``` r
WHG %>% select(c(Year, Month, Day, Temp))
```

```
## # A tibble: 24 x 4
##     Year Month   Day  Temp
##    <int> <int> <int> <dbl>
##  1  2008     3    15  6.76
##  2  2008     3    15  6.48
##  3  2008     3    15  5.51
##  4  2008     3    15  6.89
##  5  2008     3    15  6.10
##  6  2008     3    15  6.91
##  7  2008     3    15  6.10
##  8  2008     3    15  5.98
##  9  2008     3    15  8.99
## 10  2008     3    15 10.8 
## # i 14 more rows
```

-   

    g)  *Sort the dataset by the* `Temp` *column, in descending order*


``` r
WHG %>% arrange(desc(Temp))
```

```
## # A tibble: 24 x 6
##     Year Month   Day  Hour Temp_gaps  Temp
##    <int> <int> <int> <int>     <dbl> <dbl>
##  1  2008     3    15    13      NA    15.2
##  2  2008     3    15    16      14.5  14.5
##  3  2008     3    15    14      NA    14.2
##  4  2008     3    15    12      NA    14.2
##  5  2008     3    15    15      14.1  14.1
##  6  2008     3    15    11      NA    13.6
##  7  2008     3    15    17      13.3  13.3
##  8  2008     3    15    18      12.1  12.1
##  9  2008     3    15    10      12.0  12.0
## 10  2008     3    15     9      10.8  10.8
## # i 14 more rows
```
…
4.  *Now use the* `tidyverse` *function* `mutate` *to achieve the same outcome*


``` r
WHG_F <- WHG %>% mutate(Temp_F = Temp * 1.8 + 32)
WHG_F
```

```
## # A tibble: 24 x 7
##     Year Month   Day  Hour Temp_gaps  Temp Temp_F
##    <int> <int> <int> <int>     <dbl> <dbl>  <dbl>
##  1  2008     3    15     0      6.76  6.76   44.2
##  2  2008     3    15     1      6.48  6.48   43.7
##  3  2008     3    15     2      5.51  5.51   41.9
##  4  2008     3    15     3      6.89  6.89   44.4
##  5  2008     3    15     4      6.10  6.10   43.0
##  6  2008     3    15     5     NA     6.91   44.4
##  7  2008     3    15     6     NA     6.10   43.0
##  8  2008     3    15     7     NA     5.98   42.8
##  9  2008     3    15     8     NA     8.99   48.2
## 10  2008     3    15     9     10.8  10.8    51.4
## # i 14 more rows
```
…
